0.0	0.0	0.0
0.0	0.32941177	0.0
0.0	0.32941177	0.0
0.0	0.32941177	0.0
0.0	0.32941177	0.0
0.0	0.32941177	0.0
0.0	0.32941177	0.0
0.0	0.32941177	0.0
0.0	0.32941177	0.0
0.0	0.32941177	0.0
0.0	0.32941177	0.0
0.0	0.32941177	0.0
0.0	0.32941177	0.0
0.0	0.32941177	0.0
0.0	0.32941177	0.0
0.0	0.32941177	0.0
0.0	0.65882355	0.0
0.0	0.65882355	0.0
0.0	0.65882355	0.0
0.0	0.65882355	0.0
0.0	0.65882355	0.0
0.0	0.65882355	0.0
0.0	0.65882355	0.0
0.0	0.65882355	0.0
0.0	0.65882355	0.0
0.0	0.65882355	0.0
0.0	0.65882355	0.0
0.0	0.65882355	0.0
0.0	0.65882355	0.0
0.0	0.65882355	0.0
0.0	0.65882355	0.0
0.0	0.65882355	0.0
0.0	1.0	0.0
0.0	1.0	0.0
0.0	1.0	0.0
0.0	1.0	0.0
0.0	1.0	0.0
0.0	1.0	0.0
0.0	1.0	0.0
0.0	1.0	0.0
0.0	1.0	0.0
0.0	1.0	0.0
0.0	1.0	0.0
0.0	1.0	0.0
0.0	1.0	0.0
0.0	1.0	0.0
0.0	1.0	0.0
0.0	1.0	0.0
0.0	1.0	0.32941177
0.0	1.0	0.32941177
0.0	1.0	0.32941177
0.0	1.0	0.32941177
0.0	1.0	0.32941177
0.0	1.0	0.32941177
0.0	1.0	0.32941177
0.0	1.0	0.32941177
0.0	1.0	0.32941177
0.0	1.0	0.32941177
0.0	1.0	0.32941177
0.0	1.0	0.32941177
0.0	1.0	0.32941177
0.0	1.0	0.32941177
0.0	1.0	0.32941177
0.0	1.0	0.32941177
0.0	1.0	0.65882355
0.0	1.0	0.65882355
0.0	1.0	0.65882355
0.0	1.0	0.65882355
0.0	1.0	0.65882355
0.0	1.0	0.65882355
0.0	1.0	0.65882355
0.0	1.0	0.65882355
0.0	1.0	0.65882355
0.0	1.0	0.65882355
0.0	1.0	0.65882355
0.0	1.0	0.65882355
0.0	1.0	0.65882355
0.0	1.0	0.65882355
0.0	1.0	0.65882355
0.0	1.0	0.65882355
0.0	1.0	1.0
0.0	1.0	1.0
0.0	1.0	1.0
0.0	1.0	1.0
0.0	1.0	1.0
0.0	1.0	1.0
0.0	1.0	1.0
0.0	1.0	1.0
0.0	1.0	1.0
0.0	1.0	1.0
0.0	1.0	1.0
0.0	1.0	1.0
0.0	1.0	1.0
0.0	1.0	1.0
0.0	1.0	1.0
0.0	1.0	1.0
0.0	0.0	1.0
0.0	0.0	1.0
0.0	0.0	1.0
0.0	0.0	1.0
0.0	0.0	1.0
0.0	0.0	1.0
0.0	0.0	1.0
0.0	0.0	1.0
0.0	0.0	1.0
0.0	0.0	1.0
0.0	0.0	1.0
0.0	0.0	1.0
0.0	0.0	1.0
0.0	0.0	1.0
0.0	0.0	1.0
0.0	0.0	1.0
0.5019608	0.0	1.0
0.5019608	0.0	1.0
0.5019608	0.0	1.0
0.5019608	0.0	1.0
0.5019608	0.0	1.0
0.5019608	0.0	1.0
0.5019608	0.0	1.0
0.5019608	0.0	1.0
0.5019608	0.0	1.0
0.5019608	0.0	1.0
0.5019608	0.0	1.0
0.5019608	0.0	1.0
0.5019608	0.0	1.0
0.5019608	0.0	1.0
0.5019608	0.0	1.0
0.5019608	0.0	1.0
1.0	0.0	0.8627451
1.0	0.0	0.8627451
1.0	0.0	0.8627451
1.0	0.0	0.8627451
1.0	0.0	0.8627451
1.0	0.0	0.8627451
1.0	0.0	0.8627451
1.0	0.0	0.8627451
1.0	0.0	0.8627451
1.0	0.0	0.8627451
1.0	0.0	0.8627451
1.0	0.0	0.8627451
1.0	0.0	0.8627451
1.0	0.0	0.8627451
1.0	0.0	0.8627451
1.0	0.0	0.8627451
1.0	0.0	0.7058824
1.0	0.0	0.7058824
1.0	0.0	0.7058824
1.0	0.0	0.7058824
1.0	0.0	0.7058824
1.0	0.0	0.7058824
1.0	0.0	0.7058824
1.0	0.0	0.7058824
1.0	0.0	0.7058824
1.0	0.0	0.7058824
1.0	0.0	0.7058824
1.0	0.0	0.7058824
1.0	0.0	0.7058824
1.0	0.0	0.7058824
1.0	0.0	0.7058824
1.0	0.0	0.7058824
1.0	0.0	0.5019608
1.0	0.0	0.5019608
1.0	0.0	0.5019608
1.0	0.0	0.5019608
1.0	0.0	0.5019608
1.0	0.0	0.5019608
1.0	0.0	0.5019608
1.0	0.0	0.5019608
1.0	0.0	0.5019608
1.0	0.0	0.5019608
1.0	0.0	0.5019608
1.0	0.0	0.5019608
1.0	0.0	0.5019608
1.0	0.0	0.5019608
1.0	0.0	0.5019608
1.0	0.0	0.5019608
1.0	0.0	0.2509804
1.0	0.0	0.2509804
1.0	0.0	0.2509804
1.0	0.0	0.2509804
1.0	0.0	0.2509804
1.0	0.0	0.2509804
1.0	0.0	0.2509804
1.0	0.0	0.2509804
1.0	0.0	0.2509804
1.0	0.0	0.2509804
1.0	0.0	0.2509804
1.0	0.0	0.2509804
1.0	0.0	0.2509804
1.0	0.0	0.2509804
1.0	0.0	0.2509804
1.0	0.0	0.2509804
1.0	0.0	0.0
1.0	0.0	0.0
1.0	0.0	0.0
1.0	0.0	0.0
1.0	0.0	0.0
1.0	0.0	0.0
1.0	0.0	0.0
1.0	0.0	0.0
1.0	0.0	0.0
1.0	0.0	0.0
1.0	0.0	0.0
1.0	0.0	0.0
1.0	0.0	0.0
1.0	0.0	0.0
1.0	0.0	0.0
1.0	0.0	0.0
0.8627451	0.74509805	0.74509805
0.8627451	0.74509805	0.74509805
0.8627451	0.74509805	0.74509805
0.8627451	0.74509805	0.74509805
0.8627451	0.74509805	0.74509805
0.8666667	0.74509805	0.74509805
0.8666667	0.74509805	0.74509805
0.8666667	0.74509805	0.74509805
0.8666667	0.74509805	0.74509805
0.8666667	0.74509805	0.74509805
0.87058824	0.74509805	0.74509805
0.87058824	0.74509805	0.74509805
0.87058824	0.74509805	0.74509805
0.87058824	0.74509805	0.74509805
0.87058824	0.74509805	0.74509805
0.8745098	0.74509805	0.74509805
0.8627451	0.8627451	0.8627451
0.8627451	0.8627451	0.8627451
0.8627451	0.8627451	0.8627451
0.8627451	0.8627451	0.8627451
0.8627451	0.8627451	0.8627451
0.8627451	0.8627451	0.8627451
0.8627451	0.8627451	0.8627451
0.8627451	0.8627451	0.8627451
0.8627451	0.8627451	0.8627451
0.8627451	0.8627451	0.8627451
0.8627451	0.8627451	0.8627451
0.8627451	0.8627451	0.8627451
0.8627451	0.8627451	0.8627451
0.8627451	0.8627451	0.8627451
0.8627451	0.8627451	0.8627451
0.8627451	0.8627451	0.8627451
1.0	1.0	1.0
1.0	1.0	1.0
1.0	1.0	1.0
1.0	1.0	1.0
1.0	1.0	1.0
1.0	1.0	1.0
1.0	1.0	1.0
1.0	1.0	1.0
1.0	1.0	1.0
1.0	1.0	1.0
1.0	1.0	1.0
1.0	1.0	1.0
1.0	1.0	1.0
1.0	1.0	1.0
1.0	1.0	1.0
1.0	1.0	1.0
