0	100897912	57.582
0	100897912	47.949
0	100897912	54.518
1	92946159	43.142
1	92946159	42.371
1	92946159	40.849
2	92920917	45.876
2	92920917	44.804
2	92920917	48.019
3	92920675	46.086
3	92920675	41.600
3	92920675	47.338
4	93351616	48.580
4	93351616	44.223
4	93351616	85.994
5	93351620	48.519
5	93351620	43.132
5	93351620	45.125
6	93351620	49.421
6	93351620	63.140
6	93351620	48.109
7	93351620	44.985
7	93351620	41.850
7	93351620	43.042
8	93351620	46.627
8	93351620	41.931
8	93351620	43.603
9	93351620	65.004
9	93351620	47.809
9	93351620	43.703
9	19794643	15.883
9	63088	3.455
9	19793677	22.132
9	37237454	23.534
9	0	1.773
9	37268627	33.148
9	21564553	65.324
9	56596460	102.798
9	226736	13.980
9	226736	5.818
9	226736	2.964
9	297400	3.565
9	238008	3.004
9	238008	2.694
9	238008	3.665
9	238008	2.704
9	241232	3.936
9	324432	45.616
9	324432	22.863
9	344872	14.100
9	344872	12.688
9	0	2.073
9	344872	10.916
9	4652369	21.912
9	4652369	16.113
4	4654249	16.524
4	4654249	20.149
4	4654249	2.183
4	10832539	72.464
4	10832539	21.110
4	10832539	24.495
4	10832539	23.824
4	10832539	23.894
4	0	1.763
4	85535834	128.365
4	85533714	133.893
4	13909102	38.435
4	6019797	8.092
4	56674	19.458
4	56674	4.456
4	56674	2.403
4	56674	2.333
4	56674	2.323
4	56674	4.356
4	56674	2.534
4	56674	42.401
4	56674	39.977
4	56674	2.794
4	56674	2.383
4	56674	2.654
4	56674	2.413
4	56674	111.590
4	56674	5.067
4	191280	3.485
4	191280	0.501
4	191280	0.200
4	191280	7.421
4	191280	3.385
4	191280	12.278
4	191280	5.338
4	191280	0.190
4	191280	7.461
4	191280	6.660
4	191280	14.431
4	191280	11.316
4	191280	0.230
4	3558028	1.946
4	69925633	15.625
4	410309391	83.767
4	1155229891	223.530
4	0	5.504
4	0	52.057
4	0	23.285
4	0	4.294
4	0	5.222
4	0	3.000
4	0	10.777
4	0	2.100
4	0	91.455
4	0	52.527
4	0	6.150
4	0	43.668
4	0	16.993
4	0	2.415
4	0	1.111
4	0	4.311
4	0	1.640
4	0	1.167
4	0	8.045
4	0	1.505
4	0	1.710
4	0	1.522
4	0	18.705
4	0	4.598
4	0	94.189
4	0	1.561
4	0	40.169
4	0	76.494
4	0	1.117
4	0	7.350
4	0	7.320
4	570750	3.298
4	570750	3.696
4	570750	2.632
4	570750	3.250
4	570750	3.124
4	570750	1.788
4	570750	1.288
4	570750	3.057
4	0	6.158
4	0	2.053
4	0	39.189
