@receptacle_number=1,
@six_k_controller=1,
@axis=1;

@receptacle_number=1,
@six_k_controller=1,
@axis=2;

@receptacle_number=2,
@six_k_controller=1,
@axis=3;

@receptacle_number=2,
@six_k_controller=1,
@axis=4;

@receptacle_number=3,
@six_k_controller=1,
@axis=5;

@receptacle_number=3,
@six_k_controller=1,
@axis=6;

@receptacle_number=4,
@six_k_controller=1,
@axis=7;

@receptacle_number=4,
@six_k_controller=1,
@axis=8;

