@L_vert_arm=92.28,
@D_pivot_to_mount=117.55,
@D_perpendicular=9.37,
@L_eff_radial_arm=130.81,
@D_end_to_mount=56.82,
@sx_min=-27.00,
@sy_min=-62.74,
@sy_max=61.95,
@motion_device_name=XY probe drive 1;
