0.000000 0.000000 0.000000
0.000000 0.164706 0.000000
0.000000 0.333333 0.000000
0.000000 0.498039 0.000000
0.000000 0.666667 0.000000
0.000000 0.831373 0.000000
0.000000 1.000000 0.000000
0.000000 0.964706 0.000000
0.000000 0.925490 0.000000
0.000000 0.886275 0.000000
0.000000 0.847059 0.000000
0.000000 0.807843 0.000000
0.000000 0.772549 0.000000
0.000000 0.733333 0.000000
0.000000 0.694118 0.000000
0.000000 0.654902 0.000000
0.000000 0.615686 0.000000
0.000000 0.580392 0.000000
0.000000 0.541176 0.000000
0.000000 0.501961 0.000000
0.000000 0.462745 0.000000
0.000000 0.423529 0.000000
0.000000 0.388235 0.000000
0.000000 0.349020 0.000000
0.000000 0.309804 0.000000
0.000000 0.270588 0.000000
0.000000 0.231373 0.000000
0.000000 0.196078 0.000000
0.000000 0.156863 0.000000
0.000000 0.117647 0.000000
0.000000 0.078431 0.000000
0.000000 0.039216 0.000000
0.000000 0.000000 0.000000
0.000000 0.000000 0.031373
0.000000 0.000000 0.062745
0.000000 0.000000 0.094118
0.000000 0.000000 0.125490
0.000000 0.000000 0.160784
0.000000 0.000000 0.192157
0.000000 0.000000 0.223529
0.000000 0.000000 0.254902
0.000000 0.000000 0.290196
0.000000 0.000000 0.321569
0.000000 0.000000 0.352941
0.000000 0.000000 0.384314
0.000000 0.000000 0.415686
0.000000 0.000000 0.450980
0.000000 0.000000 0.482353
0.000000 0.000000 0.513726
0.000000 0.000000 0.545098
0.000000 0.000000 0.580392
0.000000 0.000000 0.611765
0.000000 0.000000 0.643137
0.000000 0.000000 0.674510
0.000000 0.000000 0.705882
0.000000 0.000000 0.741176
0.000000 0.000000 0.772549
0.000000 0.000000 0.803922
0.000000 0.000000 0.835294
0.000000 0.000000 0.870588
0.000000 0.000000 0.901961
0.000000 0.000000 0.933333
0.000000 0.000000 0.964706
0.000000 0.000000 1.000000
0.000000 0.000000 0.000000
0.027451 0.000000 0.019608
0.058824 0.000000 0.039216
0.090196 0.000000 0.058824
0.121569 0.000000 0.082353
0.152941 0.000000 0.101961
0.184314 0.000000 0.121569
0.215686 0.000000 0.145098
0.247059 0.000000 0.164706
0.274510 0.000000 0.184314
0.305882 0.000000 0.207843
0.337255 0.000000 0.227451
0.368627 0.000000 0.247059
0.400000 0.000000 0.270588
0.431373 0.000000 0.290196
0.462745 0.000000 0.309804
0.494118 0.000000 0.333333
0.525490 0.000000 0.349020
0.556863 0.000000 0.368627
0.592157 0.000000 0.384314
0.623529 0.000000 0.403922
0.658824 0.000000 0.423529
0.690196 0.000000 0.439216
0.721569 0.000000 0.458824
0.756863 0.000000 0.474510
0.788235 0.000000 0.494118
0.823529 0.000000 0.513726
0.854902 0.000000 0.529412
0.886275 0.000000 0.549020
0.921569 0.000000 0.564706
0.952941 0.000000 0.584314
0.988235 0.000000 0.603922
0.000000 0.000000 0.000000
0.003922 0.000000 0.000000
0.007843 0.000000 0.000000
0.011765 0.000000 0.000000
0.015686 0.000000 0.000000
0.019608 0.000000 0.000000
0.023529 0.000000 0.000000
0.027451 0.000000 0.000000
0.031373 0.000000 0.000000
0.035294 0.000000 0.000000
0.039216 0.000000 0.000000
0.043137 0.000000 0.000000
0.047059 0.000000 0.000000
0.054902 0.000000 0.000000
0.062745 0.000000 0.000000
0.070588 0.000000 0.000000
0.078431 0.000000 0.000000
0.090196 0.000000 0.000000
0.098039 0.000000 0.000000
0.105882 0.000000 0.000000
0.113725 0.000000 0.000000
0.125490 0.000000 0.000000
0.133333 0.000000 0.000000
0.141176 0.000000 0.000000
0.149020 0.000000 0.000000
0.160784 0.000000 0.000000
0.172549 0.000000 0.000000
0.184314 0.000000 0.000000
0.196078 0.000000 0.000000
0.207843 0.000000 0.000000
0.219608 0.000000 0.000000
0.231373 0.000000 0.000000
0.247059 0.000000 0.000000
0.258824 0.000000 0.000000
0.270588 0.000000 0.000000
0.282353 0.000000 0.000000
0.294118 0.000000 0.000000
0.305882 0.000000 0.000000
0.321569 0.000000 0.003922
0.333333 0.000000 0.003922
0.349020 0.000000 0.003922
0.364706 0.000000 0.003922
0.380392 0.000000 0.003922
0.396078 0.000000 0.003922
0.411765 0.000000 0.003922
0.423529 0.000000 0.003922
0.439216 0.000000 0.003922
0.454902 0.000000 0.003922
0.470588 0.000000 0.003922
0.486275 0.000000 0.003922
0.501961 0.003922 0.003922
0.513726 0.003922 0.003922
0.529412 0.003922 0.003922
0.545098 0.003922 0.003922
0.560784 0.003922 0.003922
0.576471 0.003922 0.003922
0.592157 0.003922 0.003922
0.607843 0.003922 0.003922
0.623529 0.003922 0.003922
0.639216 0.003922 0.003922
0.654902 0.003922 0.003922
0.670588 0.003922 0.003922
0.686275 0.003922 0.003922
0.698039 0.003922 0.003922
0.709804 0.003922 0.003922
0.725490 0.003922 0.003922
0.737255 0.003922 0.003922
0.752941 0.003922 0.003922
0.764706 0.003922 0.003922
0.776471 0.003922 0.003922
0.792157 0.003922 0.003922
0.803922 0.003922 0.003922
0.819608 0.003922 0.003922
0.831373 0.003922 0.003922
0.847059 0.003922 0.007843
0.854902 0.003922 0.007843
0.862745 0.003922 0.007843
0.874510 0.003922 0.007843
0.882353 0.003922 0.007843
0.890196 0.003922 0.007843
0.901961 0.003922 0.007843
0.909804 0.003922 0.007843
0.917647 0.003922 0.007843
0.929412 0.003922 0.007843
0.937255 0.003922 0.007843
0.945098 0.003922 0.007843
0.956863 0.007843 0.007843
0.956863 0.007843 0.007843
0.960784 0.007843 0.007843
0.964706 0.007843 0.007843
0.968627 0.007843 0.007843
0.968627 0.007843 0.007843
0.972549 0.007843 0.007843
0.976471 0.007843 0.007843
0.980392 0.007843 0.007843
0.980392 0.007843 0.007843
0.984314 0.007843 0.007843
0.988235 0.007843 0.007843
0.992157 0.007843 0.007843
0.996078 0.003922 0.007843
0.996078 0.003922 0.007843
0.996078 0.011765 0.007843
0.996078 0.019608 0.007843
0.996078 0.031373 0.007843
0.996078 0.039216 0.007843
0.996078 0.047059 0.007843
0.996078 0.058824 0.007843
0.996078 0.066667 0.007843
0.996078 0.074510 0.007843
0.996078 0.086275 0.007843
0.996078 0.094118 0.007843
0.996078 0.101961 0.007843
0.996078 0.113725 0.007843
0.996078 0.121569 0.007843
0.996078 0.129412 0.007843
0.996078 0.141176 0.007843
0.996078 0.141176 0.007843
0.996078 0.149020 0.011765
0.996078 0.156863 0.015686
0.996078 0.164706 0.019608
1.000000 0.176471 0.027451
1.000000 0.188235 0.035294
1.000000 0.200000 0.047059
1.000000 0.211765 0.054902
1.000000 0.227451 0.066667
1.000000 0.239216 0.078431
1.000000 0.250980 0.090196
1.000000 0.262745 0.105882
1.000000 0.274510 0.117647
1.000000 0.286275 0.133333
1.000000 0.301961 0.152941
1.000000 0.321569 0.172549
1.000000 0.341176 0.192157
1.000000 0.360784 0.215686
1.000000 0.376471 0.235294
1.000000 0.392157 0.254902
1.000000 0.407843 0.278431
1.000000 0.423529 0.298039
1.000000 0.443137 0.321569
1.000000 0.466667 0.349020
1.000000 0.490196 0.380392
1.000000 0.513726 0.407843
1.000000 0.541176 0.439216
1.000000 0.564706 0.470588
1.000000 0.592157 0.501961
1.000000 0.615686 0.533333
1.000000 0.643137 0.568627
1.000000 0.670588 0.600000
1.000000 0.698039 0.635294
1.000000 0.725490 0.670588
1.000000 0.756863 0.705882
1.000000 0.784314 0.741176
1.000000 0.815686 0.776471
1.000000 0.843137 0.811765
1.000000 0.874510 0.850980
1.000000 0.898039 0.878431
1.000000 0.921569 0.909804
1.000000 0.949020 0.937255
1.000000 0.972549 0.968627
1.000000 1.000000 1.000000
